Final Project Pre-analysis and Data Transformations
…
Pre-Analysis

Merge Current and Old Area Codes

print(cities_area_codes_final, n = 20) #take a look at the area code dataset

# A tibble: 3,699 × 6
   area_code city           state_or_province    country latitude longitude
       <dbl> <chr>          <chr>                <chr>      <dbl>     <dbl>
 1       201 Bayonne        New Jersey           US          40.7     -74.1
 2       201 Bergenfield    New Jersey           US          40.9     -74.0
 3       201 Cliffside Park New Jersey           US          40.8     -74.0
 4       201 Englewood      New Jersey           US          40.9     -74.0
 5       201 Fair Lawn      New Jersey           US          40.9     -74.1
 6       201 Fort Lee       New Jersey           US          40.9     -74.0
 7       201 Hackensack     New Jersey           US          40.9     -74.0
 8       201 Hoboken        New Jersey           US          40.7     -74.0
 9       201 Jersey City    New Jersey           US          40.7     -74.1
10       201 Kearny         New Jersey           US          40.8     -74.1
11       201 North Bergen   New Jersey           US          40.8     -74.0
12       201 Paramus        New Jersey           US          40.9     -74.1
13       201 Ridgewood      New Jersey           US          41.0     -74.1
14       201 Teaneck        New Jersey           US          40.9     -74.0
15       201 Union City     New Jersey           US          40.8     -74.0
16       201 West New York  New Jersey           US          40.8     -74.0
17       202 Washington     District of Columbia US          38.9     -77.0
18       203 Bridgeport     Connecticut          US          41.2     -73.2
19       203 Danbury        Connecticut          US          41.4     -73.5
20       203 East Haven     Connecticut          US          41.3     -72.9
# ℹ 3,679 more rows
…
workflow_rknn <- workflow() |>
  add_model(classification_rknn) |>
  add_recipe(rknn_recipe)

# Fit the model
workflow_rknn_fit <- workflow_rknn |>
  fit(train_data)

# Predict the original area code on the test partition
workflow_rknn_preds <- workflow_rknn_fit |>
  predict(test_data)

workflow_rknn_preds

# A tibble: 2,621 × 1
   .pred_class
   <fct>      
 1 218        
 2 206        
 3 406        
 4 406        
 5 208        
 6 406        
 7 206        
 8 206        
 9 701        
10 218        
# ℹ 2,611 more rows
…
#number of NA new area codes
is.na(counties_area_codes_imputed$new_area_code) |> 
  sum()

[1] 2621

new_area_code_summary <- counties_area_codes_imputed |>
  distinct(new_area_code, original_area_code) |> 
  group_by(original_area_code) |>
  summarize(
    unique_count = n_distinct(new_area_code, na.rm = TRUE))

new_area_code_summary 

# A tibble: 77 × 2
   original_area_code unique_count
   <fct>                     <int>
 1 201                           9
 2 202                           1
 3 203                           3
 4 205                           4
 5 206                           5
 6 207                           1
 7 208                           1
 8 212                           6
 9 213                          19
10 214                           8
# ℹ 67 more rows
…
workflow_rf <- workflow() |>
  add_model(classification_rf) |>
  add_recipe(rf_recipe)

# Fit the model
workflow_rf_fit <- workflow_rf |>
  fit(train_data)

# Predict the original area code on the test partition
workflow_rf_preds <- workflow_rf_fit |>
  predict(test_data)

workflow_rf_preds

# A tibble: 2,573 × 1
   .pred_class
   <fct>      
 1 218        
 2 425        
 3 360        
 4 360        
 5 406        
 6 406        
 7 208        
 8 406        
 9 425        
10 425        
# ℹ 2,563 more rows
…
